{
    "brawlhalla_id": 5466734,
    "name": "Fever ð»ðð",
    "xp": 3880851,
    "level": 100,
    "xp_percentage": 0,
    "games": 38444,
    "wins": 20091,
    "damagebomb": "349221",
    "damagemine": "222860",
    "damagespikeball": "134755",
    "damagesidekick": "223418",
    "hitsnowball": 1369,
    "kobomb": 2964,
    "komine": 1435,
    "kospikeball": 1125,
    "kosidekick": 80,
    "kosnowball": 441,
    "legends": [
        {
            "legend_id": 32,
            "legend_name_key": "cross",
            "damagedealt": "391930",
            "damagetaken": "384479",
            "kos": 2126,
            "falls": 1967,
            "suicides": 109,
            "teamkos": 9,
            "matchtime": 143442,
            "games": 947,
            "wins": 441,
            "damageunarmed": "44925",
            "damagethrownitem": "9262",
            "damageweaponone": "106639",
            "damageweapontwo": "189446",
            "damagegadgets": "30805",
            "kounarmed": 228,
            "kothrownitem": 79,
            "koweaponone": 564,
            "koweapontwo": 1088,
            "kogadgets": 128,
            "timeheldweaponone": 30266,
            "timeheldweapontwo": 61126,
            "xp": 89394,
            "level": 34,
            "xp_percentage": 0.3242444152431
        },
        {
            "legend_id": 35,
            "legend_name_key": "mordex",
            "damagedealt": "256781",
            "damagetaken": "257017",
            "kos": 1285,
            "falls": 1310,
            "suicides": 76,
            "teamkos": 13,
            "matchtime": 90083,
            "games": 665,
            "wins": 327,
            "damageunarmed": "29877",
            "damagethrownitem": "7026",
            "damageweaponone": "90878",
            "damageweapontwo": "106169",
            "damagegadgets": "16464",
            "kounarmed": 193,
            "kothrownitem": 100,
            "koweaponone": 392,
            "koweapontwo": 473,
            "kogadgets": 103,
            "timeheldweaponone": 27615,
            "timeheldweapontwo": 30555,
            "xp": 56565,
            "level": 28,
            "xp_percentage": 0.15235042735043
        },
        {
            "legend_id": 26,
            "legend_name_key": "jhala",
            "damagedealt": "287961",
            "damagetaken": "239124",
            "kos": 1452,
            "falls": 1238,
            "suicides": 64,
            "teamkos": 5,
            "matchtime": 75276,
            "games": 555,
            "wins": 241,
            "damageunarmed": "32665",
            "damagethrownitem": "6059",
            "damageweaponone": "141525",
            "damageweapontwo": "77414",
            "damagegadgets": "21764",
            "kounarmed": 155,
            "kothrownitem": 71,
            "koweaponone": 638,
            "koweapontwo": 434,
            "kogadgets": 117,
            "timeheldweaponone": 26879,
            "timeheldweapontwo": 16789,
            "xp": 46838,
            "level": 25,
            "xp_percentage": 0.92456575682382
        },
        {
            "legend_id": 8,
            "legend_name_key": "queen nai",
            "damagedealt": "536089",
            "damagetaken": "443896",
            "kos": 2803,
            "falls": 2148,
            "suicides": 78,
            "teamkos": 38,
            "matchtime": 161290,
            "games": 1190,
            "wins": 698,
            "damageunarmed": "36195",
            "damagethrownitem": "7079",
            "damageweaponone": "263303",
            "damageweapontwo": "193420",
            "damagegadgets": "19486",
            "kounarmed": 224,
            "kothrownitem": 125,
            "koweaponone": 1013,
            "koweapontwo": 1241,
            "kogadgets": 131,
            "timeheldweaponone": 63184,
            "timeheldweapontwo": 50323,
            "xp": 105566,
            "level": 36,
            "xp_percentage": 0.87296268088347
        },
        {
            "legend_id": 28,
            "legend_name_key": "kor",
            "damagedealt": "253721",
            "damagetaken": "246309",
            "kos": 1442,
            "falls": 1304,
            "suicides": 88,
            "teamkos": 6,
            "matchtime": 89470,
            "games": 671,
            "wins": 351,
            "damageunarmed": "22863",
            "damagethrownitem": "5256",
            "damageweaponone": "136512",
            "damageweapontwo": "67973",
            "damagegadgets": "12075",
            "kounarmed": 130,
            "kothrownitem": 115,
            "koweaponone": 681,
            "koweapontwo": 385,
            "kogadgets": 85,
            "timeheldweaponone": 41047,
            "timeheldweapontwo": 19100,
            "xp": 56335,
            "level": 28,
            "xp_percentage": 0.10320512820513
        },
        {
            "legend_id": 22,
            "legend_name_key": "ulgrim",
            "damagedealt": "302107",
            "damagetaken": "273131",
            "kos": 1674,
            "falls": 1382,
            "suicides": 65,
            "teamkos": 12,
            "matchtime": 94968,
            "games": 655,
            "wins": 338,
            "damageunarmed": "28850",
            "damagethrownitem": "6215",
            "damageweaponone": "155107",
            "damageweapontwo": "91570",
            "damagegadgets": "14241",
            "kounarmed": 180,
            "kothrownitem": 139,
            "koweaponone": 814,
            "koweapontwo": 414,
            "kogadgets": 92,
            "timeheldweaponone": 40983,
            "timeheldweapontwo": 22421,
            "xp": 59807,
            "level": 28,
            "xp_percentage": 0.84508547008547
        },
        {
            "legend_id": 3,
            "legend_name_key": "bodvar",
            "damagedealt": "225651",
            "damagetaken": "231216",
            "kos": 1310,
            "falls": 1171,
            "suicides": 59,
            "teamkos": 12,
            "matchtime": 77572,
            "games": 595,
            "wins": 307,
            "damageunarmed": "22939",
            "damagethrownitem": "4754",
            "damageweaponone": "73931",
            "damageweapontwo": "104357",
            "damagegadgets": "11629",
            "kounarmed": 109,
            "kothrownitem": 98,
            "koweaponone": 434,
            "koweapontwo": 579,
            "kogadgets": 55,
            "timeheldweaponone": 20045,
            "timeheldweapontwo": 30717,
            "xp": 49112,
            "level": 26,
            "xp_percentage": 0.46385684012244
        },
        {
            "legend_id": 19,
            "legend_name_key": "brynn",
            "damagedealt": "299942",
            "damagetaken": "265006",
            "kos": 1499,
            "falls": 1366,
            "suicides": 60,
            "teamkos": 7,
            "matchtime": 93807,
            "games": 697,
            "wins": 372,
            "damageunarmed": "27788",
            "damagethrownitem": "6609",
            "damageweaponone": "91245",
            "damageweapontwo": "151557",
            "damagegadgets": "15002",
            "kounarmed": 174,
            "kothrownitem": 126,
            "koweaponone": 432,
            "koweapontwo": 647,
            "kogadgets": 92,
            "timeheldweaponone": 25446,
            "timeheldweapontwo": 35365,
            "xp": 58215,
            "level": 28,
            "xp_percentage": 0.50491452991453
        },
        {
            "legend_id": 18,
            "legend_name_key": "ember",
            "damagedealt": "116812",
            "damagetaken": "110749",
            "kos": 629,
            "falls": 596,
            "suicides": 36,
            "teamkos": 4,
            "matchtime": 38257,
            "games": 284,
            "wins": 133,
            "damageunarmed": "11435",
            "damagethrownitem": "1969",
            "damageweaponone": "49566",
            "damageweapontwo": "43763",
            "damagegadgets": "5795",
            "kounarmed": 68,
            "kothrownitem": 40,
            "koweaponone": 255,
            "koweapontwo": 203,
            "kogadgets": 43,
            "timeheldweaponone": 12932,
            "timeheldweapontwo": 11641,
            "xp": 24116,
            "level": 19,
            "xp_percentage": 0.30990415335463
        },
        {
            "legend_id": 14,
            "legend_name_key": "ada",
            "damagedealt": "765508",
            "damagetaken": "761636",
            "kos": 4669,
            "falls": 3926,
            "suicides": 156,
            "teamkos": 62,
            "matchtime": 280932,
            "games": 2038,
            "wins": 1111,
            "damageunarmed": "86779",
            "damagethrownitem": "17935",
            "damageweaponone": "227915",
            "damageweapontwo": "379908",
            "damagegadgets": "35283",
            "kounarmed": 523,
            "kothrownitem": 448,
            "koweaponone": 1203,
            "koweapontwo": 2164,
            "kogadgets": 239,
            "timeheldweaponone": 70024,
            "timeheldweapontwo": 115324,
            "xp": 168671,
            "level": 45,
            "xp_percentage": 0.088348416289593
        },
        {
            "legend_id": 31,
            "legend_name_key": "ragnir",
            "damagedealt": "247962",
            "damagetaken": "200741",
            "kos": 1323,
            "falls": 1009,
            "suicides": 58,
            "teamkos": 6,
            "matchtime": 69826,
            "games": 465,
            "wins": 248,
            "damageunarmed": "18451",
            "damagethrownitem": "3639",
            "damageweaponone": "99490",
            "damageweapontwo": "107835",
            "damagegadgets": "11048",
            "kounarmed": 108,
            "kothrownitem": 48,
            "koweaponone": 547,
            "koweapontwo": 525,
            "kogadgets": 64,
            "timeheldweaponone": 25927,
            "timeheldweapontwo": 22436,
            "xp": 44578,
            "level": 25,
            "xp_percentage": 0.36377171215881
        },
        {
            "legend_id": 5,
            "legend_name_key": "orion",
            "damagedealt": "334563",
            "damagetaken": "292062",
            "kos": 1816,
            "falls": 1527,
            "suicides": 78,
            "teamkos": 17,
            "matchtime": 108150,
            "games": 827,
            "wins": 472,
            "damageunarmed": "32431",
            "damagethrownitem": "5432",
            "damageweaponone": "103884",
            "damageweapontwo": "167638",
            "damagegadgets": "15734",
            "kounarmed": 251,
            "kothrownitem": 179,
            "koweaponone": 525,
            "koweapontwo": 725,
            "kogadgets": 102,
            "timeheldweaponone": 30006,
            "timeheldweapontwo": 40393,
            "xp": 69397,
            "level": 30,
            "xp_percentage": 0.76864654333009
        },
        {
            "legend_id": 29,
            "legend_name_key": "wu shang",
            "damagedealt": "618031",
            "damagetaken": "504734",
            "kos": 3222,
            "falls": 2530,
            "suicides": 141,
            "teamkos": 27,
            "matchtime": 187209,
            "games": 1305,
            "wins": 679,
            "damageunarmed": "62942",
            "damagethrownitem": "14350",
            "damageweaponone": "317454",
            "damageweapontwo": "172514",
            "damagegadgets": "33125",
            "kounarmed": 385,
            "kothrownitem": 182,
            "koweaponone": 1714,
            "koweapontwo": 713,
            "kogadgets": 155,
            "timeheldweaponone": 74712,
            "timeheldweapontwo": 44053,
            "xp": 112172,
            "level": 37,
            "xp_percentage": 0.84844921358224
        },
        {
            "legend_id": 24,
            "legend_name_key": "koji",
            "damagedealt": "94441",
            "damagetaken": "106320",
            "kos": 479,
            "falls": 565,
            "suicides": 28,
            "teamkos": 4,
            "matchtime": 36704,
            "games": 270,
            "wins": 100,
            "damageunarmed": "12184",
            "damagethrownitem": "2441",
            "damageweaponone": "28311",
            "damageweapontwo": "40515",
            "damagegadgets": "6206",
            "kounarmed": 92,
            "kothrownitem": 28,
            "koweaponone": 154,
            "koweapontwo": 141,
            "kogadgets": 43,
            "timeheldweaponone": 9114,
            "timeheldweapontwo": 13063,
            "xp": 21950,
            "level": 18,
            "xp_percentage": 0.50686498855835
        },
        {
            "legend_id": 12,
            "legend_name_key": "scarlet",
            "damagedealt": "318591",
            "damagetaken": "255146",
            "kos": 1787,
            "falls": 1322,
            "suicides": 84,
            "teamkos": 18,
            "matchtime": 90328,
            "games": 673,
            "wins": 383,
            "damageunarmed": "27045",
            "damagethrownitem": "4445",
            "damageweaponone": "139712",
            "damageweapontwo": "124779",
            "damagegadgets": "16444",
            "kounarmed": 150,
            "kothrownitem": 138,
            "koweaponone": 778,
            "koweapontwo": 599,
            "kogadgets": 98,
            "timeheldweaponone": 35215,
            "timeheldweapontwo": 25756,
            "xp": 58216,
            "level": 28,
            "xp_percentage": 0.50512820512821
        },
        {
            "legend_id": 21,
            "legend_name_key": "barraza",
            "damagedealt": "467946",
            "damagetaken": "439378",
            "kos": 2596,
            "falls": 2278,
            "suicides": 156,
            "teamkos": 26,
            "matchtime": 173103,
            "games": 1262,
            "wins": 654,
            "damageunarmed": "45674",
            "damagethrownitem": "11402",
            "damageweaponone": "228650",
            "damageweapontwo": "128288",
            "damagegadgets": "25176",
            "kounarmed": 257,
            "kothrownitem": 146,
            "koweaponone": 1279,
            "koweapontwo": 607,
            "kogadgets": 172,
            "timeheldweaponone": 75271,
            "timeheldweapontwo": 38170,
            "xp": 105121,
            "level": 36,
            "xp_percentage": 0.80517897943641
        },
        {
            "legend_id": 7,
            "legend_name_key": "gnash",
            "damagedealt": "422519",
            "damagetaken": "372717",
            "kos": 2522,
            "falls": 1871,
            "suicides": 80,
            "teamkos": 47,
            "matchtime": 133638,
            "games": 1016,
            "wins": 603,
            "damageunarmed": "35603",
            "damagethrownitem": "6607",
            "damageweaponone": "237758",
            "damageweapontwo": "111249",
            "damagegadgets": "22285",
            "kounarmed": 179,
            "kothrownitem": 148,
            "koweaponone": 1472,
            "koweapontwo": 532,
            "kogadgets": 151,
            "timeheldweaponone": 65602,
            "timeheldweapontwo": 26850,
            "xp": 85093,
            "level": 33,
            "xp_percentage": 0.60222222222222
        },
        {
            "legend_id": 34,
            "legend_name_key": "nix",
            "damagedealt": "434621",
            "damagetaken": "383777",
            "kos": 2353,
            "falls": 1928,
            "suicides": 92,
            "teamkos": 12,
            "matchtime": 136573,
            "games": 951,
            "wins": 472,
            "damageunarmed": "38124",
            "damagethrownitem": "8418",
            "damageweaponone": "154213",
            "damageweapontwo": "190369",
            "damagegadgets": "31158",
            "kounarmed": 187,
            "kothrownitem": 113,
            "koweaponone": 737,
            "koweapontwo": 1053,
            "kogadgets": 206,
            "timeheldweaponone": 38368,
            "timeheldweapontwo": 54053,
            "xp": 84975,
            "level": 33,
            "xp_percentage": 0.58205128205128
        },
        {
            "legend_id": 6,
            "legend_name_key": "lord vraxx",
            "damagedealt": "768661",
            "damagetaken": "568047",
            "kos": 4097,
            "falls": 2869,
            "suicides": 139,
            "teamkos": 72,
            "matchtime": 201655,
            "games": 1456,
            "wins": 816,
            "damageunarmed": "56073",
            "damagethrownitem": "9258",
            "damageweaponone": "356748",
            "damageweapontwo": "286718",
            "damagegadgets": "39755",
            "kounarmed": 332,
            "kothrownitem": 182,
            "koweaponone": 1854,
            "koweapontwo": 1363,
            "kogadgets": 271,
            "timeheldweaponone": 69828,
            "timeheldweapontwo": 66534,
            "xp": 129780,
            "level": 40,
            "xp_percentage": 0.29251520761703
        },
        {
            "legend_id": 30,
            "legend_name_key": "val",
            "damagedealt": "2219807",
            "damagetaken": "2015982",
            "kos": 12846,
            "falls": 10308,
            "suicides": 666,
            "teamkos": 178,
            "matchtime": 770145,
            "games": 5019,
            "wins": 2560,
            "damageunarmed": "237911",
            "damagethrownitem": "65014",
            "damageweaponone": "1303764",
            "damageweapontwo": "441860",
            "damagegadgets": "116871",
            "kounarmed": 1262,
            "kothrownitem": 980,
            "koweaponone": 7628,
            "koweapontwo": 2041,
            "kogadgets": 687,
            "timeheldweaponone": 355471,
            "timeheldweapontwo": 136860,
            "xp": 461277,
            "level": 69,
            "xp_percentage": 0.29032875837855
        },
        {
            "legend_id": 25,
            "legend_name_key": "diana",
            "damagedealt": "282967",
            "damagetaken": "248537",
            "kos": 1535,
            "falls": 1293,
            "suicides": 74,
            "teamkos": 8,
            "matchtime": 82806,
            "games": 619,
            "wins": 295,
            "damageunarmed": "25566",
            "damagethrownitem": "3995",
            "damageweaponone": "154944",
            "damageweapontwo": "78283",
            "damagegadgets": "14092",
            "kounarmed": 132,
            "kothrownitem": 78,
            "koweaponone": 848,
            "koweapontwo": 370,
            "kogadgets": 75,
            "timeheldweaponone": 33053,
            "timeheldweapontwo": 21731,
            "xp": 50872,
            "level": 26,
            "xp_percentage": 0.87826701200848
        },
        {
            "legend_id": 16,
            "legend_name_key": "teros",
            "damagedealt": "1410438",
            "damagetaken": "1310583",
            "kos": 9721,
            "falls": 6935,
            "suicides": 471,
            "teamkos": 124,
            "matchtime": 488085,
            "games": 3616,
            "wins": 2109,
            "damageunarmed": "144107",
            "damagethrownitem": "38611",
            "damageweaponone": "799108",
            "damageweapontwo": "314158",
            "damagegadgets": "72512",
            "kounarmed": 844,
            "kothrownitem": 1081,
            "koweaponone": 5304,
            "koweapontwo": 1861,
            "kogadgets": 422,
            "timeheldweaponone": 231544,
            "timeheldweapontwo": 93918,
            "xp": 307100,
            "level": 58,
            "xp_percentage": 0.24615384615385
        },
        {
            "legend_id": 37,
            "legend_name_key": "artemis",
            "damagedealt": "271955",
            "damagetaken": "258437",
            "kos": 1414,
            "falls": 1354,
            "suicides": 100,
            "teamkos": 7,
            "matchtime": 93848,
            "games": 666,
            "wins": 333,
            "damageunarmed": "35118",
            "damagethrownitem": "6083",
            "damageweaponone": "130481",
            "damageweapontwo": "75431",
            "damagegadgets": "16869",
            "kounarmed": 200,
            "kothrownitem": 121,
            "koweaponone": 657,
            "koweapontwo": 321,
            "kogadgets": 85,
            "timeheldweaponone": 32837,
            "timeheldweapontwo": 23235,
            "xp": 58471,
            "level": 28,
            "xp_percentage": 0.55961538461538
        },
        {
            "legend_id": 20,
            "legend_name_key": "asuri",
            "damagedealt": "614272",
            "damagetaken": "624701",
            "kos": 3490,
            "falls": 3241,
            "suicides": 145,
            "teamkos": 32,
            "matchtime": 218436,
            "games": 1577,
            "wins": 775,
            "damageunarmed": "52461",
            "damagethrownitem": "11683",
            "damageweaponone": "334085",
            "damageweapontwo": "167931",
            "damagegadgets": "30839",
            "kounarmed": 315,
            "kothrownitem": 232,
            "koweaponone": 1852,
            "koweapontwo": 854,
            "kogadgets": 184,
            "timeheldweaponone": 98921,
            "timeheldweapontwo": 50683,
            "xp": 134148,
            "level": 40,
            "xp_percentage": 0.870140174557
        },
        {
            "legend_id": 15,
            "legend_name_key": "sentinel",
            "damagedealt": "138955",
            "damagetaken": "131273",
            "kos": 741,
            "falls": 690,
            "suicides": 50,
            "teamkos": 3,
            "matchtime": 48543,
            "games": 350,
            "wins": 180,
            "damageunarmed": "14414",
            "damagethrownitem": "3351",
            "damageweaponone": "57501",
            "damageweapontwo": "52514",
            "damagegadgets": "7000",
            "kounarmed": 79,
            "kothrownitem": 57,
            "koweaponone": 319,
            "koweapontwo": 217,
            "kogadgets": 53,
            "timeheldweaponone": 16079,
            "timeheldweapontwo": 15778,
            "xp": 30285,
            "level": 21,
            "xp_percentage": 0.37823511069535
        },
        {
            "legend_id": 13,
            "legend_name_key": "thatch",
            "damagedealt": "599844",
            "damagetaken": "560730",
            "kos": 3515,
            "falls": 2787,
            "suicides": 101,
            "teamkos": 72,
            "matchtime": 189569,
            "games": 1460,
            "wins": 822,
            "damageunarmed": "44846",
            "damagethrownitem": "8813",
            "damageweaponone": "175167",
            "damageweapontwo": "331794",
            "damagegadgets": "27692",
            "kounarmed": 236,
            "kothrownitem": 145,
            "koweaponone": 989,
            "koweapontwo": 1936,
            "kogadgets": 158,
            "timeheldweaponone": 43461,
            "timeheldweapontwo": 92791,
            "xp": 121133,
            "level": 39,
            "xp_percentage": 0.11873459326212
        },
        {
            "legend_id": 4,
            "legend_name_key": "cassidy",
            "damagedealt": "322390",
            "damagetaken": "282253",
            "kos": 1746,
            "falls": 1477,
            "suicides": 83,
            "teamkos": 12,
            "matchtime": 99647,
            "games": 787,
            "wins": 440,
            "damageunarmed": "22869",
            "damagethrownitem": "5185",
            "damageweaponone": "125879",
            "damageweapontwo": "144394",
            "damagegadgets": "15753",
            "kounarmed": 109,
            "kothrownitem": 91,
            "koweaponone": 669,
            "koweapontwo": 747,
            "kogadgets": 96,
            "timeheldweaponone": 32873,
            "timeheldweapontwo": 36288,
            "xp": 62832,
            "level": 29,
            "xp_percentage": 0.46766978446523
        },
        {
            "legend_id": 33,
            "legend_name_key": "mirage",
            "damagedealt": "150883",
            "damagetaken": "150182",
            "kos": 724,
            "falls": 778,
            "suicides": 49,
            "teamkos": 3,
            "matchtime": 52056,
            "games": 375,
            "wins": 177,
            "damageunarmed": "19804",
            "damagethrownitem": "5592",
            "damageweaponone": "43357",
            "damageweapontwo": "69267",
            "damagegadgets": "9106",
            "kounarmed": 151,
            "kothrownitem": 62,
            "koweaponone": 168,
            "koweapontwo": 260,
            "kogadgets": 68,
            "timeheldweaponone": 14367,
            "timeheldweapontwo": 17736,
            "xp": 31720,
            "level": 21,
            "xp_percentage": 0.82569379482382
        },
        {
            "legend_id": 23,
            "legend_name_key": "azoth",
            "damagedealt": "349831",
            "damagetaken": "302097",
            "kos": 1731,
            "falls": 1519,
            "suicides": 52,
            "teamkos": 13,
            "matchtime": 104660,
            "games": 748,
            "wins": 394,
            "damageunarmed": "30081",
            "damagethrownitem": "5436",
            "damageweaponone": "119423",
            "damageweapontwo": "169995",
            "damagegadgets": "16131",
            "kounarmed": 173,
            "kothrownitem": 79,
            "koweaponone": 585,
            "koweapontwo": 768,
            "kogadgets": 82,
            "timeheldweaponone": 32673,
            "timeheldweapontwo": 38764,
            "xp": 67034,
            "level": 30,
            "xp_percentage": 0.30847127555988
        },
        {
            "legend_id": 11,
            "legend_name_key": "sir roland",
            "damagedealt": "317340",
            "damagetaken": "251040",
            "kos": 1574,
            "falls": 1251,
            "suicides": 62,
            "teamkos": 17,
            "matchtime": 95020,
            "games": 668,
            "wins": 399,
            "damageunarmed": "31003",
            "damagethrownitem": "6124",
            "damageweaponone": "130715",
            "damageweapontwo": "121109",
            "damagegadgets": "16620",
            "kounarmed": 202,
            "kothrownitem": 111,
            "koweaponone": 630,
            "koweapontwo": 466,
            "kogadgets": 104,
            "timeheldweaponone": 33989,
            "timeheldweapontwo": 27856,
            "xp": 60926,
            "level": 29,
            "xp_percentage": 0.080113867425783
        },
        {
            "legend_id": 38,
            "legend_name_key": "caspian",
            "damagedealt": "238443",
            "damagetaken": "225028",
            "kos": 1132,
            "falls": 1209,
            "suicides": 74,
            "teamkos": 6,
            "matchtime": 76330,
            "games": 579,
            "wins": 262,
            "damageunarmed": "23500",
            "damagethrownitem": "5901",
            "damageweaponone": "136427",
            "damageweapontwo": "51696",
            "damagegadgets": "13611",
            "kounarmed": 146,
            "kothrownitem": 63,
            "koweaponone": 626,
            "koweapontwo": 192,
            "kogadgets": 74,
            "timeheldweaponone": 23749,
            "timeheldweapontwo": 26096,
            "xp": 47899,
            "level": 26,
            "xp_percentage": 0.17824346597598
        },
        {
            "legend_id": 36,
            "legend_name_key": "yumiko",
            "damagedealt": "123244",
            "damagetaken": "124109",
            "kos": 700,
            "falls": 655,
            "suicides": 37,
            "teamkos": 6,
            "matchtime": 47084,
            "games": 333,
            "wins": 159,
            "damageunarmed": "13508",
            "damagethrownitem": "2588",
            "damageweaponone": "50385",
            "damageweapontwo": "44708",
            "damagegadgets": "6785",
            "kounarmed": 68,
            "kothrownitem": 52,
            "koweaponone": 228,
            "koweapontwo": 289,
            "kogadgets": 42,
            "timeheldweaponone": 16400,
            "timeheldweapontwo": 14195,
            "xp": 29382,
            "level": 21,
            "xp_percentage": 0.096663548487683
        },
        {
            "legend_id": 9,
            "legend_name_key": "lucien",
            "damagedealt": "283523",
            "damagetaken": "180036",
            "kos": 1182,
            "falls": 875,
            "suicides": 53,
            "teamkos": 9,
            "matchtime": 66980,
            "games": 458,
            "wins": 238,
            "damageunarmed": "20780",
            "damagethrownitem": "3740",
            "damageweaponone": "120105",
            "damageweapontwo": "119756",
            "damagegadgets": "12531",
            "kounarmed": 102,
            "kothrownitem": 47,
            "koweaponone": 564,
            "koweapontwo": 378,
            "kogadgets": 65,
            "timeheldweaponone": 24921,
            "timeheldweapontwo": 21728,
            "xp": 43630,
            "level": 25,
            "xp_percentage": 0.12853598014888
        },
        {
            "legend_id": 10,
            "legend_name_key": "hattori",
            "damagedealt": "317389",
            "damagetaken": "287013",
            "kos": 1643,
            "falls": 1432,
            "suicides": 55,
            "teamkos": 8,
            "matchtime": 103059,
            "games": 776,
            "wins": 430,
            "damageunarmed": "28064",
            "damagethrownitem": "6548",
            "damageweaponone": "145275",
            "damageweapontwo": "115216",
            "damagegadgets": "14688",
            "kounarmed": 176,
            "kothrownitem": 159,
            "koweaponone": 753,
            "koweapontwo": 413,
            "kogadgets": 112,
            "timeheldweaponone": 40315,
            "timeheldweapontwo": 27869,
            "xp": 64541,
            "level": 29,
            "xp_percentage": 0.81516876779179
        },
        {
            "legend_id": 39,
            "legend_name_key": "sidra",
            "damagedealt": "99918",
            "damagetaken": "99925",
            "kos": 529,
            "falls": 514,
            "suicides": 39,
            "teamkos": 10,
            "matchtime": 36946,
            "games": 285,
            "wins": 138,
            "damageunarmed": "12404",
            "damagethrownitem": "2517",
            "damageweaponone": "34779",
            "damageweapontwo": "40174",
            "damagegadgets": "5584",
            "kounarmed": 83,
            "kothrownitem": 43,
            "koweaponone": 120,
            "koweapontwo": 231,
            "kogadgets": 34,
            "timeheldweaponone": 10408,
            "timeheldweapontwo": 12954,
            "xp": 22830,
            "level": 18,
            "xp_percentage": 0.84248665141114
        },
        {
            "legend_id": 40,
            "legend_name_key": "xull",
            "damagedealt": "490902",
            "damagetaken": "466147",
            "kos": 2475,
            "falls": 2440,
            "suicides": 128,
            "teamkos": 23,
            "matchtime": 161641,
            "games": 1185,
            "wins": 574,
            "damageunarmed": "48138",
            "damagethrownitem": "10774",
            "damageweaponone": "182696",
            "damageweapontwo": "201039",
            "damagegadgets": "31379",
            "kounarmed": 273,
            "kothrownitem": 174,
            "koweaponone": 941,
            "koweapontwo": 830,
            "kogadgets": 180,
            "timeheldweaponone": 53431,
            "timeheldweapontwo": 54937,
            "xp": 99310,
            "level": 35,
            "xp_percentage": 0.91702228544334
        },
        {
            "legend_id": 42,
            "legend_name_key": "kaya",
            "damagedealt": "59481",
            "damagetaken": "60329",
            "kos": 275,
            "falls": 331,
            "suicides": 34,
            "teamkos": 4,
            "matchtime": 22255,
            "games": 170,
            "wins": 69,
            "damageunarmed": "7952",
            "damagethrownitem": "1752",
            "damageweaponone": "22172",
            "damageweapontwo": "19323",
            "damagegadgets": "3770",
            "kounarmed": 53,
            "kothrownitem": 22,
            "koweaponone": 65,
            "koweapontwo": 78,
            "kogadgets": 35,
            "timeheldweaponone": 6083,
            "timeheldweapontwo": 6089,
            "xp": 13635,
            "level": 14,
            "xp_percentage": 0.8814892501311
        },
        {
            "legend_id": 41,
            "legend_name_key": "isaiah",
            "damagedealt": "219602",
            "damagetaken": "198583",
            "kos": 1091,
            "falls": 996,
            "suicides": 50,
            "teamkos": 12,
            "matchtime": 70854,
            "games": 496,
            "wins": 270,
            "damageunarmed": "17416",
            "damagethrownitem": "2990",
            "damageweaponone": "79526",
            "damageweapontwo": "101453",
            "damagegadgets": "10165",
            "kounarmed": 85,
            "kothrownitem": 74,
            "koweaponone": 301,
            "koweapontwo": 531,
            "kogadgets": 69,
            "timeheldweaponone": 20622,
            "timeheldweapontwo": 27457,
            "xp": 46435,
            "level": 25,
            "xp_percentage": 0.82456575682382
        },
        {
            "legend_id": 43,
            "legend_name_key": "jiro",
            "damagedealt": "202813",
            "damagetaken": "205488",
            "kos": 1038,
            "falls": 1049,
            "suicides": 42,
            "teamkos": 12,
            "matchtime": 67733,
            "games": 488,
            "wins": 207,
            "damageunarmed": "19727",
            "damagethrownitem": "3016",
            "damageweaponone": "80276",
            "damageweapontwo": "81891",
            "damagegadgets": "11728",
            "kounarmed": 113,
            "kothrownitem": 46,
            "koweaponone": 421,
            "koweapontwo": 374,
            "kogadgets": 62,
            "timeheldweaponone": 21275,
            "timeheldweapontwo": 24765,
            "xp": 43305,
            "level": 25,
            "xp_percentage": 0.047890818858561
        },
        {
            "legend_id": 44,
            "legend_name_key": "lin fei",
            "damagedealt": "192948",
            "damagetaken": "164515",
            "kos": 951,
            "falls": 843,
            "suicides": 51,
            "teamkos": 5,
            "matchtime": 58037,
            "games": 407,
            "wins": 189,
            "damageunarmed": "16789",
            "damagethrownitem": "2471",
            "damageweaponone": "75696",
            "damageweapontwo": "84512",
            "damagegadgets": "8750",
            "kounarmed": 97,
            "kothrownitem": 65,
            "koweaponone": 324,
            "koweapontwo": 381,
            "kogadgets": 59,
            "timeheldweaponone": 18701,
            "timeheldweapontwo": 20597,
            "xp": 36335,
            "level": 23,
            "xp_percentage": 0.18076285240464
        },
        {
            "legend_id": 45,
            "legend_name_key": "zariel",
            "damagedealt": "270452",
            "damagetaken": "233575",
            "kos": 1360,
            "falls": 1209,
            "suicides": 66,
            "teamkos": 8,
            "matchtime": 85890,
            "games": 599,
            "wins": 319,
            "damageunarmed": "22063",
            "damagethrownitem": "5233",
            "damageweaponone": "119316",
            "damageweapontwo": "104698",
            "damagegadgets": "13299",
            "kounarmed": 140,
            "kothrownitem": 99,
            "koweaponone": 500,
            "koweapontwo": 494,
            "kogadgets": 101,
            "timeheldweaponone": 28987,
            "timeheldweapontwo": 30690,
            "xp": 54495,
            "level": 27,
            "xp_percentage": 0.69594443199641
        },
        {
            "legend_id": 46,
            "legend_name_key": "rayman",
            "damagedealt": "527825",
            "damagetaken": "453131",
            "kos": 2589,
            "falls": 2145,
            "suicides": 109,
            "teamkos": 42,
            "matchtime": 167516,
            "games": 1247,
            "wins": 730,
            "damageunarmed": "40253",
            "damagethrownitem": "10759",
            "damageweaponone": "170845",
            "damageweapontwo": "274543",
            "damagegadgets": "21015",
            "kounarmed": 258,
            "kothrownitem": 188,
            "koweaponone": 689,
            "koweapontwo": 1269,
            "kogadgets": 154,
            "timeheldweaponone": 47009,
            "timeheldweapontwo": 72798,
            "xp": 106539,
            "level": 37,
            "xp_percentage": 0.020432162281346
        },
        {
            "legend_id": 47,
            "legend_name_key": "dusk",
            "damagedealt": "171464",
            "damagetaken": "166248",
            "kos": 852,
            "falls": 821,
            "suicides": 24,
            "teamkos": 2,
            "matchtime": 55547,
            "games": 427,
            "wins": 217,
            "damageunarmed": "14815",
            "damagethrownitem": "2642",
            "damageweaponone": "66141",
            "damageweapontwo": "76927",
            "damagegadgets": "7144",
            "kounarmed": 74,
            "kothrownitem": 48,
            "koweaponone": 258,
            "koweapontwo": 396,
            "kogadgets": 59,
            "timeheldweaponone": 17397,
            "timeheldweapontwo": 21166,
            "xp": 33099,
            "level": 22,
            "xp_percentage": 0.24103468547913
        },
        {
            "legend_id": 48,
            "legend_name_key": "fait",
            "damagedealt": "85455",
            "damagetaken": "86363",
            "kos": 383,
            "falls": 424,
            "suicides": 15,
            "teamkos": 3,
            "matchtime": 29864,
            "games": 231,
            "wins": 104,
            "damageunarmed": "8177",
            "damagethrownitem": "1445",
            "damageweaponone": "29089",
            "damageweapontwo": "37829",
            "damagegadgets": "4659",
            "kounarmed": 62,
            "kothrownitem": 14,
            "koweaponone": 98,
            "koweapontwo": 158,
            "kogadgets": 28,
            "timeheldweaponone": 8592,
            "timeheldweapontwo": 11518,
            "xp": 19225,
            "level": 17,
            "xp_percentage": 0.42480428512567
        },
        {
            "legend_id": 49,
            "legend_name_key": "thor",
            "damagedealt": "335858",
            "damagetaken": "183140",
            "kos": 1365,
            "falls": 952,
            "suicides": 55,
            "teamkos": 15,
            "matchtime": 70174,
            "games": 505,
            "wins": 272,
            "damageunarmed": "21417",
            "damagethrownitem": "7298",
            "damageweaponone": "150088",
            "damageweapontwo": "134967",
            "damagegadgets": "16190",
            "kounarmed": 116,
            "kothrownitem": 90,
            "koweaponone": 664,
            "koweapontwo": 399,
            "kogadgets": 66,
            "timeheldweaponone": 26121,
            "timeheldweapontwo": 22723,
            "xp": 44618,
            "level": 25,
            "xp_percentage": 0.37369727047146
        },
        {
            "legend_id": 50,
            "legend_name_key": "petra",
            "damagedealt": "369600",
            "damagetaken": "261468",
            "kos": 1690,
            "falls": 1291,
            "suicides": 38,
            "teamkos": 4,
            "matchtime": 75194,
            "games": 538,
            "wins": 283,
            "damageunarmed": "27904",
            "damagethrownitem": "4531",
            "damageweaponone": "178601",
            "damageweapontwo": "137279",
            "damagegadgets": "15689",
            "kounarmed": 160,
            "kothrownitem": 65,
            "koweaponone": 816,
            "koweapontwo": 549,
            "kogadgets": 87,
            "timeheldweaponone": 27258,
            "timeheldweapontwo": 23082,
            "xp": 48877,
            "level": 26,
            "xp_percentage": 0.40852366376266
        },
        {
            "legend_id": 51,
            "legend_name_key": "vector",
            "damagedealt": "78164",
            "damagetaken": "67424",
            "kos": 441,
            "falls": 347,
            "suicides": 18,
            "teamkos": 5,
            "matchtime": 26543,
            "games": 187,
            "wins": 105,
            "damageunarmed": "6540",
            "damagethrownitem": "1661",
            "damageweaponone": "39915",
            "damageweapontwo": "23176",
            "damagegadgets": "4215",
            "kounarmed": 36,
            "kothrownitem": 46,
            "koweaponone": 213,
            "koweapontwo": 110,
            "kogadgets": 24,
            "timeheldweaponone": 11645,
            "timeheldweapontwo": 6448,
            "xp": 17380,
            "level": 16,
            "xp_percentage": 0.6387039502885
        },
        {
            "legend_id": 52,
            "legend_name_key": "volkov",
            "damagedealt": "233950",
            "damagetaken": "217691",
            "kos": 1232,
            "falls": 1085,
            "suicides": 44,
            "teamkos": 9,
            "matchtime": 82667,
            "games": 582,
            "wins": 324,
            "damageunarmed": "17028",
            "damagethrownitem": "4669",
            "damageweaponone": "75160",
            "damageweapontwo": "115942",
            "damagegadgets": "14834",
            "kounarmed": 103,
            "kothrownitem": 74,
            "koweaponone": 301,
            "koweapontwo": 630,
            "kogadgets": 96,
            "timeheldweaponone": 21831,
            "timeheldweapontwo": 36783,
            "xp": 50637,
            "level": 26,
            "xp_percentage": 0.82293383564869
        },
        {
            "legend_id": 53,
            "legend_name_key": "onyx",
            "damagedealt": "126081",
            "damagetaken": "111646",
            "kos": 558,
            "falls": 564,
            "suicides": 25,
            "teamkos": 7,
            "matchtime": 40080,
            "games": 268,
            "wins": 139,
            "damageunarmed": "11019",
            "damagethrownitem": "2045",
            "damageweaponone": "42901",
            "damageweapontwo": "60168",
            "damagegadgets": "7194",
            "kounarmed": 71,
            "kothrownitem": 28,
            "koweaponone": 145,
            "koweapontwo": 257,
            "kogadgets": 42,
            "timeheldweaponone": 11253,
            "timeheldweapontwo": 15788,
            "xp": 25936,
            "level": 19,
            "xp_percentage": 0.95598154064608
        },
        {
            "legend_id": 54,
            "legend_name_key": "jaeyun",
            "damagedealt": "217579",
            "damagetaken": "204679",
            "kos": 1131,
            "falls": 1058,
            "suicides": 39,
            "teamkos": 6,
            "matchtime": 69603,
            "games": 521,
            "wins": 262,
            "damageunarmed": "19525",
            "damagethrownitem": "5860",
            "damageweaponone": "60275",
            "damageweapontwo": "108143",
            "damagegadgets": "15614",
            "kounarmed": 125,
            "kothrownitem": 93,
            "koweaponone": 266,
            "koweapontwo": 525,
            "kogadgets": 97,
            "timeheldweaponone": 16875,
            "timeheldweapontwo": 28717,
            "xp": 45252,
            "level": 25,
            "xp_percentage": 0.53101736972705
        },
        {
            "legend_id": 55,
            "legend_name_key": "mako",
            "damagedealt": "108318",
            "damagetaken": "102259",
            "kos": 593,
            "falls": 549,
            "suicides": 34,
            "teamkos": 7,
            "matchtime": 36197,
            "games": 269,
            "wins": 137,
            "damageunarmed": "9166",
            "damagethrownitem": "1610",
            "damageweaponone": "41179",
            "damageweapontwo": "48446",
            "damagegadgets": "4861",
            "kounarmed": 63,
            "kothrownitem": 37,
            "koweaponone": 173,
            "koweapontwo": 282,
            "kogadgets": 30,
            "timeheldweaponone": 11562,
            "timeheldweapontwo": 13560,
            "xp": 23629,
            "level": 19,
            "xp_percentage": 0.13702520411786
        },
        {
            "legend_id": 56,
            "legend_name_key": "magyar",
            "damagedealt": "73856",
            "damagetaken": "69291",
            "kos": 422,
            "falls": 335,
            "suicides": 20,
            "teamkos": 5,
            "matchtime": 26479,
            "games": 184,
            "wins": 113,
            "damageunarmed": "6203",
            "damagethrownitem": "1381",
            "damageweaponone": "31179",
            "damageweapontwo": "29852",
            "damagegadgets": "4138",
            "kounarmed": 28,
            "kothrownitem": 37,
            "koweaponone": 196,
            "koweapontwo": 133,
            "kogadgets": 27,
            "timeheldweaponone": 9921,
            "timeheldweapontwo": 8996,
            "xp": 17080,
            "level": 16,
            "xp_percentage": 0.50554815801154
        },
        {
            "legend_id": 57,
            "legend_name_key": "reno",
            "damagedealt": "114869",
            "damagetaken": "109215",
            "kos": 567,
            "falls": 555,
            "suicides": 26,
            "teamkos": 10,
            "matchtime": 38584,
            "games": 278,
            "wins": 138,
            "damageunarmed": "8093",
            "damagethrownitem": "1108",
            "damageweaponone": "50998",
            "damageweapontwo": "46073",
            "damagegadgets": "3454",
            "kounarmed": 21,
            "kothrownitem": 25,
            "koweaponone": 263,
            "koweapontwo": 222,
            "kogadgets": 20,
            "timeheldweaponone": 15181,
            "timeheldweapontwo": 12948,
            "xp": 25718,
            "level": 19,
            "xp_percentage": 0.87859424920128
        },
        {
            "legend_id": 58,
            "legend_name_key": "munin",
            "damagedealt": "90511",
            "damagetaken": "81765",
            "kos": 492,
            "falls": 422,
            "suicides": 15,
            "teamkos": 5,
            "matchtime": 28543,
            "games": 206,
            "wins": 112,
            "damageunarmed": "6971",
            "damagethrownitem": "1045",
            "damageweaponone": "31311",
            "damageweapontwo": "40667",
            "damagegadgets": "3412",
            "kounarmed": 31,
            "kothrownitem": 27,
            "koweaponone": 170,
            "koweapontwo": 203,
            "kogadgets": 23,
            "timeheldweaponone": 9144,
            "timeheldweapontwo": 11465,
            "xp": 19418,
            "level": 17,
            "xp_percentage": 0.50432632880099
        },
        {
            "legend_id": 59,
            "legend_name_key": "arcadia",
            "damagedealt": "269295",
            "damagetaken": "174286",
            "kos": 1091,
            "falls": 856,
            "suicides": 17,
            "teamkos": 26,
            "matchtime": 62915,
            "games": 405,
            "wins": 221,
            "damageunarmed": "18603",
            "damagethrownitem": "7033",
            "damageweaponone": "100903",
            "damageweapontwo": "123567",
            "damagegadgets": "12886",
            "kounarmed": 79,
            "kothrownitem": 48,
            "koweaponone": 320,
            "koweapontwo": 568,
            "kogadgets": 61,
            "timeheldweaponone": 16043,
            "timeheldweapontwo": 29991,
            "xp": 43139,
            "level": 25,
            "xp_percentage": 0.0066997518610422
        },
        {
            "legend_id": 60,
            "legend_name_key": "ezio",
            "damagedealt": "196843",
            "damagetaken": "191795",
            "kos": 1130,
            "falls": 991,
            "suicides": 49,
            "teamkos": 30,
            "matchtime": 69280,
            "games": 423,
            "wins": 222,
            "damageunarmed": "11241",
            "damagethrownitem": "1042",
            "damageweaponone": "63721",
            "damageweapontwo": "112957",
            "damagegadgets": "6271",
            "kounarmed": 49,
            "kothrownitem": 40,
            "koweaponone": 382,
            "koweapontwo": 620,
            "kogadgets": 37,
            "timeheldweaponone": 20959,
            "timeheldweapontwo": 31765,
            "xp": 46808,
            "level": 25,
            "xp_percentage": 0.91712158808933
        }
    ],
    "clan": {
        "clan_name": "Liberator",
        "clan_id": 276652,
        "clan_xp": "1316560",
        "personal_xp": 757598
    },
    "lookups": 87,
    "playerRanked": {
        "name": "Fever ð»ðð",
        "brawlhalla_id": 5466734,
        "rating": 1816,
        "peak_rating": 1817,
        "tier": "Platinum 3",
        "wins": 452,
        "games": 884,
        "region": "EU",
        "global_rank": 0,
        "region_rank": 0,
        "legends": [
            {
                "legend_id": 3,
                "legend_name_key": "bodvar",
                "rating": 979,
                "peak_rating": 979,
                "tier": "Bronze 2",
                "wins": 1,
                "games": 2
            },
            {
                "legend_id": 4,
                "legend_name_key": "cassidy",
                "rating": 1042,
                "peak_rating": 1042,
                "tier": "Bronze 4",
                "wins": 0,
                "games": 1
            },
            {
                "legend_id": 5,
                "legend_name_key": "orion",
                "rating": 1306,
                "peak_rating": 1306,
                "tier": "Silver 4",
                "wins": 6,
                "games": 10
            },
            {
                "legend_id": 7,
                "legend_name_key": "gnash",
                "rating": 1047,
                "peak_rating": 1047,
                "tier": "Bronze 4",
                "wins": 0,
                "games": 1
            },
            {
                "legend_id": 8,
                "legend_name_key": "queen nai",
                "rating": 1525,
                "peak_rating": 1525,
                "tier": "Gold 3",
                "wins": 12,
                "games": 17
            },
            {
                "legend_id": 11,
                "legend_name_key": "sir roland",
                "rating": 1163,
                "peak_rating": 1163,
                "tier": "Silver 1",
                "wins": 3,
                "games": 4
            },
            {
                "legend_id": 10,
                "legend_name_key": "hattori",
                "rating": 1162,
                "peak_rating": 1162,
                "tier": "Silver 1",
                "wins": 2,
                "games": 6
            },
            {
                "legend_id": 6,
                "legend_name_key": "lord vraxx",
                "rating": 1633,
                "peak_rating": 1633,
                "tier": "Gold 5",
                "wins": 19,
                "games": 30
            },
            {
                "legend_id": 9,
                "legend_name_key": "lucien",
                "rating": 1674,
                "peak_rating": 1691,
                "tier": "Platinum 0",
                "wins": 46,
                "games": 80
            },
            {
                "legend_id": 21,
                "legend_name_key": "barraza",
                "rating": 1072,
                "peak_rating": 1072,
                "tier": "Bronze 4",
                "wins": 1,
                "games": 2
            },
            {
                "legend_id": 14,
                "legend_name_key": "ada",
                "rating": 1280,
                "peak_rating": 1280,
                "tier": "Silver 3",
                "wins": 9,
                "games": 14
            },
            {
                "legend_id": 16,
                "legend_name_key": "teros",
                "rating": 1538,
                "peak_rating": 1538,
                "tier": "Gold 3",
                "wins": 10,
                "games": 18
            },
            {
                "legend_id": 19,
                "legend_name_key": "brynn",
                "rating": 1065,
                "peak_rating": 1065,
                "tier": "Bronze 4",
                "wins": 1,
                "games": 1
            },
            {
                "legend_id": 12,
                "legend_name_key": "scarlet",
                "rating": 1512,
                "peak_rating": 1535,
                "tier": "Gold 3",
                "wins": 13,
                "games": 22
            },
            {
                "legend_id": 22,
                "legend_name_key": "ulgrim",
                "rating": 1194,
                "peak_rating": 1195,
                "tier": "Silver 2",
                "wins": 1,
                "games": 7
            },
            {
                "legend_id": 20,
                "legend_name_key": "asuri",
                "rating": 1525,
                "peak_rating": 1533,
                "tier": "Gold 3",
                "wins": 19,
                "games": 39
            },
            {
                "legend_id": 23,
                "legend_name_key": "azoth",
                "rating": 1668,
                "peak_rating": 1755,
                "tier": "Platinum 0",
                "wins": 51,
                "games": 85
            },
            {
                "legend_id": 24,
                "legend_name_key": "koji",
                "rating": 860,
                "peak_rating": 860,
                "tier": "Tin 4",
                "wins": 1,
                "games": 1
            },
            {
                "legend_id": 18,
                "legend_name_key": "ember",
                "rating": 1316,
                "peak_rating": 1316,
                "tier": "Silver 4",
                "wins": 8,
                "games": 13
            },
            {
                "legend_id": 13,
                "legend_name_key": "thatch",
                "rating": 1374,
                "peak_rating": 1374,
                "tier": "Silver 5",
                "wins": 2,
                "games": 4
            },
            {
                "legend_id": 15,
                "legend_name_key": "sentinel",
                "rating": 933,
                "peak_rating": 933,
                "tier": "Bronze 1",
                "wins": 2,
                "games": 8
            },
            {
                "legend_id": 32,
                "legend_name_key": "cross",
                "rating": 1120,
                "peak_rating": 1120,
                "tier": "Bronze 5",
                "wins": 5,
                "games": 10
            },
            {
                "legend_id": 29,
                "legend_name_key": "wu shang",
                "rating": 1032,
                "peak_rating": 1032,
                "tier": "Bronze 3",
                "wins": 0,
                "games": 2
            },
            {
                "legend_id": 30,
                "legend_name_key": "val",
                "rating": 1321,
                "peak_rating": 1339,
                "tier": "Silver 4",
                "wins": 2,
                "games": 9
            },
            {
                "legend_id": 26,
                "legend_name_key": "jhala",
                "rating": 1001,
                "peak_rating": 1001,
                "tier": "Bronze 3",
                "wins": 1,
                "games": 3
            },
            {
                "legend_id": 34,
                "legend_name_key": "nix",
                "rating": 1165,
                "peak_rating": 1165,
                "tier": "Silver 1",
                "wins": 2,
                "games": 2
            },
            {
                "legend_id": 28,
                "legend_name_key": "kor",
                "rating": 1091,
                "peak_rating": 1091,
                "tier": "Bronze 5",
                "wins": 0,
                "games": 2
            },
            {
                "legend_id": 40,
                "legend_name_key": "xull",
                "rating": 1065,
                "peak_rating": 1065,
                "tier": "Bronze 4",
                "wins": 1,
                "games": 2
            },
            {
                "legend_id": 37,
                "legend_name_key": "artemis",
                "rating": 1238,
                "peak_rating": 1238,
                "tier": "Silver 3",
                "wins": 7,
                "games": 10
            },
            {
                "legend_id": 36,
                "legend_name_key": "yumiko",
                "rating": 1024,
                "peak_rating": 1024,
                "tier": "Bronze 3",
                "wins": 2,
                "games": 5
            },
            {
                "legend_id": 38,
                "legend_name_key": "caspian",
                "rating": 914,
                "peak_rating": 914,
                "tier": "Bronze 1",
                "wins": 0,
                "games": 0
            },
            {
                "legend_id": 35,
                "legend_name_key": "mordex",
                "rating": 1366,
                "peak_rating": 1383,
                "tier": "Silver 5",
                "wins": 14,
                "games": 41
            },
            {
                "legend_id": 41,
                "legend_name_key": "isaiah",
                "rating": 1115,
                "peak_rating": 1115,
                "tier": "Bronze 5",
                "wins": 1,
                "games": 1
            },
            {
                "legend_id": 25,
                "legend_name_key": "diana",
                "rating": 915,
                "peak_rating": 915,
                "tier": "Bronze 1",
                "wins": 2,
                "games": 3
            },
            {
                "legend_id": 31,
                "legend_name_key": "ragnir",
                "rating": 1402,
                "peak_rating": 1418,
                "tier": "Gold 1",
                "wins": 9,
                "games": 22
            },
            {
                "legend_id": 33,
                "legend_name_key": "mirage",
                "rating": 1012,
                "peak_rating": 1012,
                "tier": "Bronze 3",
                "wins": 3,
                "games": 8
            },
            {
                "legend_id": 39,
                "legend_name_key": "sidra",
                "rating": 825,
                "peak_rating": 825,
                "tier": "Tin 3",
                "wins": 0,
                "games": 0
            },
            {
                "legend_id": 43,
                "legend_name_key": "jiro",
                "rating": 1063,
                "peak_rating": 1063,
                "tier": "Bronze 4",
                "wins": 3,
                "games": 11
            },
            {
                "legend_id": 42,
                "legend_name_key": "kaya",
                "rating": 750,
                "peak_rating": 750,
                "tier": "Tin 1",
                "wins": 0,
                "games": 0
            },
            {
                "legend_id": 44,
                "legend_name_key": "lin fei",
                "rating": 1165,
                "peak_rating": 1165,
                "tier": "Silver 1",
                "wins": 3,
                "games": 7
            },
            {
                "legend_id": 45,
                "legend_name_key": "zariel",
                "rating": 1073,
                "peak_rating": 1073,
                "tier": "Bronze 4",
                "wins": 3,
                "games": 5
            },
            {
                "legend_id": 46,
                "legend_name_key": "rayman",
                "rating": 1359,
                "peak_rating": 1359,
                "tier": "Silver 5",
                "wins": 3,
                "games": 10
            },
            {
                "legend_id": 47,
                "legend_name_key": "dusk",
                "rating": 1182,
                "peak_rating": 1182,
                "tier": "Silver 2",
                "wins": 4,
                "games": 6
            },
            {
                "legend_id": 48,
                "legend_name_key": "fait",
                "rating": 947,
                "peak_rating": 947,
                "tier": "Bronze 1",
                "wins": 4,
                "games": 12
            },
            {
                "legend_id": 49,
                "legend_name_key": "thor",
                "rating": 1254,
                "peak_rating": 1257,
                "tier": "Silver 3",
                "wins": 0,
                "games": 1
            },
            {
                "legend_id": 50,
                "legend_name_key": "petra",
                "rating": 1051,
                "peak_rating": 1051,
                "tier": "Bronze 4",
                "wins": 1,
                "games": 4
            },
            {
                "legend_id": 51,
                "legend_name_key": "vector",
                "rating": 923,
                "peak_rating": 923,
                "tier": "Bronze 1",
                "wins": 0,
                "games": 1
            },
            {
                "legend_id": 52,
                "legend_name_key": "volkov",
                "rating": 893,
                "peak_rating": 893,
                "tier": "Tin 5",
                "wins": 0,
                "games": 0
            },
            {
                "legend_id": 53,
                "legend_name_key": "onyx",
                "rating": 1324,
                "peak_rating": 1338,
                "tier": "Silver 4",
                "wins": 2,
                "games": 11
            },
            {
                "legend_id": 54,
                "legend_name_key": "jaeyun",
                "rating": 1010,
                "peak_rating": 1010,
                "tier": "Bronze 3",
                "wins": 0,
                "games": 4
            },
            {
                "legend_id": 55,
                "legend_name_key": "mako",
                "rating": 1022,
                "peak_rating": 1022,
                "tier": "Bronze 3",
                "wins": 2,
                "games": 7
            },
            {
                "legend_id": 57,
                "legend_name_key": "reno",
                "rating": 1474,
                "peak_rating": 1528,
                "tier": "Gold 2",
                "wins": 14,
                "games": 27
            },
            {
                "legend_id": 58,
                "legend_name_key": "munin",
                "rating": 1184,
                "peak_rating": 1184,
                "tier": "Silver 2",
                "wins": 0,
                "games": 3
            },
            {
                "legend_id": 59,
                "legend_name_key": "arcadia",
                "rating": 1805,
                "peak_rating": 1805,
                "tier": "Platinum 2",
                "wins": 62,
                "games": 112
            },
            {
                "legend_id": 56,
                "legend_name_key": "magyar",
                "rating": 1224,
                "peak_rating": 1224,
                "tier": "Silver 2",
                "wins": 9,
                "games": 18
            },
            {
                "legend_id": 60,
                "legend_name_key": "ezio",
                "rating": 1634,
                "peak_rating": 1728,
                "tier": "Platinum 0",
                "wins": 86,
                "games": 160
            }
        ],
        "2v2": [
            {
                "brawlhalla_id_one": 5466734,
                "brawlhalla_id_two": 5746144,
                "rating": 1450,
                "peak_rating": 1501,
                "tier": "Gold 2",
                "wins": 51,
                "games": 110,
                "teamname": "Fever ð»ðð+Douwd",
                "region": 3,
                "global_rank": 0
            },
            {
                "brawlhalla_id_one": 5466734,
                "brawlhalla_id_two": 8758028,
                "rating": 750,
                "peak_rating": 750,
                "tier": "Tin 1",
                "wins": 0,
                "games": 1,
                "teamname": "Fever+xdissanguat0x",
                "region": 3,
                "global_rank": 0
            },
            {
                "brawlhalla_id_one": 5466734,
                "brawlhalla_id_two": 22901860,
                "rating": 796,
                "peak_rating": 796,
                "tier": "Tin 3",
                "wins": 1,
                "games": 2,
                "teamname": "Fever+Dont GG me",
                "region": 3,
                "global_rank": 0
            },
            {
                "brawlhalla_id_one": 5466734,
                "brawlhalla_id_two": 25381496,
                "rating": 800,
                "peak_rating": 800,
                "tier": "Tin 3",
                "wins": 1,
                "games": 2,
                "teamname": "Fever+Sofiane-san",
                "region": 3,
                "global_rank": 0
            },
            {
                "brawlhalla_id_one": 5466734,
                "brawlhalla_id_two": 31680829,
                "rating": 833,
                "peak_rating": 833,
                "tier": "Tin 3",
                "wins": 2,
                "games": 4,
                "teamname": "Fever ð»ðð+MC|Scarled Mist",
                "region": 3,
                "global_rank": 0
            },
            {
                "brawlhalla_id_one": 5466734,
                "brawlhalla_id_two": 35504051,
                "rating": 750,
                "peak_rating": 750,
                "tier": "Tin 1",
                "wins": 0,
                "games": 1,
                "teamname": "Fever+leorick._.",
                "region": 3,
                "global_rank": 0
            },
            {
                "brawlhalla_id_one": 5466734,
                "brawlhalla_id_two": 37962472,
                "rating": 1442,
                "peak_rating": 1502,
                "tier": "Gold 1",
                "wins": 17,
                "games": 32,
                "teamname": "Fever+Badec",
                "region": 3,
                "global_rank": 0
            },
            {
                "brawlhalla_id_one": 5466734,
                "brawlhalla_id_two": 41238357,
                "rating": 806,
                "peak_rating": 806,
                "tier": "Tin 3",
                "wins": 1,
                "games": 5,
                "teamname": "Fever+Cranker",
                "region": 3,
                "global_rank": 0
            },
            {
                "brawlhalla_id_one": 5466734,
                "brawlhalla_id_two": 42408918,
                "rating": 955,
                "peak_rating": 955,
                "tier": "Bronze 2",
                "wins": 4,
                "games": 6,
                "teamname": "Fever ð»ðð+Sans_",
                "region": 3,
                "global_rank": 0
            },
            {
                "brawlhalla_id_one": 5466734,
                "brawlhalla_id_two": 57713147,
                "rating": 821,
                "peak_rating": 821,
                "tier": "Tin 3",
                "wins": 2,
                "games": 3,
                "teamname": "Fever ð»ðð+Gabriel",
                "region": 3,
                "global_rank": 0
            },
            {
                "brawlhalla_id_one": 5466734,
                "brawlhalla_id_two": 73036651,
                "rating": 750,
                "peak_rating": 750,
                "tier": "Tin 1",
                "wins": 0,
                "games": 1,
                "teamname": "Fever+Fazerlon",
                "region": 3,
                "global_rank": 0
            },
            {
                "brawlhalla_id_one": 5466734,
                "brawlhalla_id_two": 89834591,
                "rating": 1509,
                "peak_rating": 1559,
                "tier": "Gold 3",
                "wins": 51,
                "games": 87,
                "teamname": "Fever+LÎ±ÏÉ¾Î±",
                "region": 3,
                "global_rank": 0
            },
            {
                "brawlhalla_id_one": 5466734,
                "brawlhalla_id_two": 89935399,
                "rating": 1390,
                "peak_rating": 1390,
                "tier": "Gold 1",
                "wins": 26,
                "games": 45,
                "teamname": "Fever+Jâ¨Eâ¨Wâ¨Bâ¨Uâ¨Râ¨N",
                "region": 3,
                "global_rank": 0
            },
            {
                "brawlhalla_id_one": 5466734,
                "brawlhalla_id_two": 90349665,
                "rating": 1209,
                "peak_rating": 1224,
                "tier": "Silver 2",
                "wins": 14,
                "games": 21,
                "teamname": "Fever+Brawler",
                "region": 3,
                "global_rank": 0
            },
            {
                "brawlhalla_id_one": 377042,
                "brawlhalla_id_two": 5466734,
                "rating": 872,
                "peak_rating": 872,
                "tier": "Tin 5",
                "wins": 3,
                "games": 6,
                "teamname": "AMB Trysk3l+Fever ð»ðð",
                "region": 3,
                "global_rank": 0
            }
        ]
    }
}